..........
----------------------------------------------------------------------
Ran 10 tests in 0.002s

OK
Name               Stmts   Miss Branch BrPart  Cover   Missing
--------------------------------------------------------------
Diplomacy.py          80      0     58      0   100%
TestDiplomacy.py      66      0      0      0   100%
--------------------------------------------------------------
TOTAL                146      0     58      0   100%