.....
----------------------------------------------------------------------
Ran 5 tests in 0.001s

OK
Name               Stmts   Miss Branch BrPart  Cover   Missing
--------------------------------------------------------------
Diplomacy.py          74      5     40      1    93%   110-116
TestDiplomacy.py      28      0      2      1    97%   84->exit
--------------------------------------------------------------
TOTAL                102      5     42      2    94%
